{
	"info": {
		"_postman_id": "2b85e7fb-d93d-40a6-bc7b-da5c00513f9a",
		"name": "GraphQL example",
		"schema": "https://schema.getpostman.com/json/collection/v2.1.0/collection.json"
	},
	"item": [
		{
			"name": "graphql/mutation",
			"request": {
				"method": "POST",
				"header": [],
				"body": {
					"mode": "graphql",
					"graphql": {
						"query": "mutation {\r\n   createStudent(\r\n        name:\"Santi\",\r\n        surname:\"Moreno\",\r\n        maternalSurname:\"Dufour\",\r\n        birth:\"2021-10-10\",\r\n   ) {\r\n       name,\r\n       surname,\r\n       maternalSurname\r\n   }\r\n}",
						"variables": ""
					}
				},
				"url": {
					"raw": "http://localhost:8081/graphql",
					"protocol": "http",
					"host": [
						"localhost"
					],
					"port": "8081",
					"path": [
						"graphql"
					]
				}
			},
			"response": []
		},
		{
			"name": "graphql/get",
			"request": {
				"method": "POST",
				"header": [],
				"body": {
					"mode": "graphql",
					"graphql": {
						"query": "query{\r\n    students(quantity:5){\r\n        name,\r\n        surname,\r\n        maternalSurname\r\n    }\r\n}",
						"variables": ""
					}
				},
				"url": {
					"raw": "http://localhost:8081/graphql",
					"protocol": "http",
					"host": [
						"localhost"
					],
					"port": "8081",
					"path": [
						"graphql"
					]
				}
			},
			"response": []
		}
	]
}